[
  {
    "id": 1,
    "movieId": 6,
    "imgSrc": "/api/images/movies/coco.jpg",
    "imgSrcFull": "/api/images/movies/coco-full.jpg",
    "imgAlt": "Coco"
  },
  {
    "id": 2,
    "movieId": 5,
    "imgSrc": "/api/images/movies/spiderman.jpg",
    "imgSrcFull": "/api/images/movies/spiderman-full.jpg",
    "imgAlt": "Spiderman"
  },
  {
    "id": 3,
    "movieId": 1,
    "imgSrc": "/api/images/movies/joker.jpg",
    "imgSrcFull": "/api/images/movies/joker-full.jpg",
    "imgAlt": "Joker"
  }
]
